[gd_scene load_steps=2 format=2]

[ext_resource path="res://managers/Game_Manager/Game_Manager.tscn" type="PackedScene" id=1]

[node name="Game_Manager_Gameplay" index="0" instance=ExtResource( 1 )]

[node name="Timer" type="Timer" parent="." index="0"]
wait_time = 0.5
one_shot = true
autostart = true

[connection signal="timeout" from="Timer" to="." method="go_to_gameplay"]
