[gd_scene load_steps=2 format=2]

[ext_resource path="res://entities/square/components/front.gd" type="Script" id=1]

[node name="front" type="Area2D" groups=[
"hitbox",
]]

position = Vector2( 3.57628e-07, -2.5 )
input_pickable = true
gravity_vec = Vector2( 0, 1 )
gravity = 98.0
linear_damp = 0.1
angular_damp = 1.0
collision_layer = 4
collision_mask = 14
audio_bus_override = false
audio_bus_name = "Master"
script = ExtResource( 1 )
_sections_unfolded = [ "Collision", "Transform" ]

[node name="shape" type="Polygon2D" parent="." index="0"]

position = Vector2( 4, 22 )
polygon = PoolVector2Array( -84, 20.5, -4, -59.5, 76, 20.5 )
uv = PoolVector2Array(  )
color = Color( 1, 0, 0, 1 )
vertex_colors = PoolColorArray(  )
offset = Vector2( 0, 0 )
antialiased = false
texture = null
texture_offset = Vector2( 0, 0 )
texture_scale = Vector2( 1, 1 )
texture_rotation_degrees = 0.0
invert_enable = false
invert_border = 100.0

[node name="hitbox" type="CollisionPolygon2D" parent="." index="1"]

position = Vector2( -3.57628e-07, 42.5 )
build_mode = 0
polygon = PoolVector2Array( -80, 0, 0, -90, 80, 0 )

[connection signal="area_entered" from="." to="." method="_on_front_area_entered"]


