[gd_scene load_steps=2 format=2]

[ext_resource path="res://managers/Map_Manager/Map_Manager.gd" type="Script" id=1]

[node name="Map_Manager" type="Control"]
anchor_right = 1.0
anchor_bottom = 1.0
script = ExtResource( 1 )

[node name="Map_List" type="ScrollContainer" parent="."]
anchor_top = 0.3
anchor_right = 1.0
anchor_bottom = 0.9
scroll_horizontal_enabled = false

[node name="List" type="VBoxContainer" parent="Map_List"]
custom_constants/separation = 10
alignment = 2

[node name="Begin" type="Button" parent="."]
anchor_left = 0.5
anchor_top = 1.0
anchor_right = 0.5
anchor_bottom = 1.0
margin_left = -26.0
margin_top = -30.0
margin_right = 26.0
margin_bottom = -10.0
rect_pivot_offset = Vector2( 26.0947, 11.1505 )
text = "Begin!"

[connection signal="pressed" from="Begin" to="." method="_on_Begin_pressed"]
